VHD/simulation/qsim/SandraRicardoAwesomeProject.msim.vcd
$comment
	File created using the following command:
		vcd file SandraRicardoAwesomeProject.msim.vcd -direction
$end
$date
	Fri May 29 15:37:27 2015
$end
$version
	ModelSim Version 10.3c
$end
$timescale
	1ps
$end

$scope module SoundRom_vlg_vec_tst $end
$var reg 1 ! iClk $end
$var reg 1 " iEn $end
$var reg 1 # iRst $end
$var wire 1 $ oDataL [15] $end
$var wire 1 % oDataL [14] $end
$var wire 1 & oDataL [13] $end
$var wire 1 ' oDataL [12] $end
$var wire 1 ( oDataL [11] $end
$var wire 1 ) oDataL [10] $end
$var wire 1 * oDataL [9] $end
$var wire 1 + oDataL [8] $end
$var wire 1 , oDataL [7] $end
$var wire 1 - oDataL [6] $end
$var wire 1 . oDataL [5] $end
$var wire 1 / oDataL [4] $end
$var wire 1 0 oDataL [3] $end
$var wire 1 1 oDataL [2] $end
$var wire 1 2 oDataL [1] $end
$var wire 1 3 oDataL [0] $end
$var wire 1 4 oDataR [15] $end
$var wire 1 5 oDataR [14] $end
$var wire 1 6 oDataR [13] $end
$var wire 1 7 oDataR [12] $end
$var wire 1 8 oDataR [11] $end
$var wire 1 9 oDataR [10] $end
$var wire 1 : oDataR [9] $end
$var wire 1 ; oDataR [8] $end
$var wire 1 < oDataR [7] $end
$var wire 1 = oDataR [6] $end
$var wire 1 > oDataR [5] $end
$var wire 1 ? oDataR [4] $end
$var wire 1 @ oDataR [3] $end
$var wire 1 A oDataR [2] $end
$var wire 1 B oDataR [1] $end
$var wire 1 C oDataR [0] $end
$var wire 1 D sampler $end

$scope module i1 $end
$var wire 1 E gnd $end
$var wire 1 F vcc $end
$var wire 1 G unknown $end
$var tri1 1 H devclrn $end
$var tri1 1 I devpor $end
$var tri1 1 J devoe $end
$var wire 1 K oDataL[0]~output_o $end
$var wire 1 L oDataL[1]~output_o $end
$var wire 1 M oDataL[2]~output_o $end
$var wire 1 N oDataL[3]~output_o $end
$var wire 1 O oDataL[4]~output_o $end
$var wire 1 P oDataL[5]~output_o $end
$var wire 1 Q oDataL[6]~output_o $end
$var wire 1 R oDataL[7]~output_o $end
$var wire 1 S oDataL[8]~output_o $end
$var wire 1 T oDataL[9]~output_o $end
$var wire 1 U oDataL[10]~output_o $end
$var wire 1 V oDataL[11]~output_o $end
$var wire 1 W oDataL[12]~output_o $end
$var wire 1 X oDataL[13]~output_o $end
$var wire 1 Y oDataL[14]~output_o $end
$var wire 1 Z oDataL[15]~output_o $end
$var wire 1 [ oDataR[0]~output_o $end
$var wire 1 \ oDataR[1]~output_o $end
$var wire 1 ] oDataR[2]~output_o $end
$var wire 1 ^ oDataR[3]~output_o $end
$var wire 1 _ oDataR[4]~output_o $end
$var wire 1 ` oDataR[5]~output_o $end
$var wire 1 a oDataR[6]~output_o $end
$var wire 1 b oDataR[7]~output_o $end
$var wire 1 c oDataR[8]~output_o $end
$var wire 1 d oDataR[9]~output_o $end
$var wire 1 e oDataR[10]~output_o $end
$var wire 1 f oDataR[11]~output_o $end
$var wire 1 g oDataR[12]~output_o $end
$var wire 1 h oDataR[13]~output_o $end
$var wire 1 i oDataR[14]~output_o $end
$var wire 1 j oDataR[15]~output_o $end
$var wire 1 k iClk~input_o $end
$var wire 1 l Counter[0]~31_combout $end
$var wire 1 m Counter[0]~32 $end
$var wire 1 n Counter[1]~35_combout $end
$var wire 1 o iRst~input_o $end
$var wire 1 p iEn~input_o $end
$var wire 1 q sEn~0_combout $end
$var wire 1 r CountCounter[0]~31_combout $end
$var wire 1 s CountCounter[0]~33_combout $end
$var wire 1 t CountCounter[0]~32 $end
$var wire 1 u CountCounter[1]~34_combout $end
$var wire 1 v CountCounter[1]~35 $end
$var wire 1 w CountCounter[2]~36_combout $end
$var wire 1 x CountCounter[2]~37 $end
$var wire 1 y CountCounter[3]~38_combout $end
$var wire 1 z sEn~1_combout $end
$var wire 1 { CountCounter[3]~39 $end
$var wire 1 | CountCounter[4]~40_combout $end
$var wire 1 } CountCounter[4]~41 $end
$var wire 1 ~ CountCounter[5]~42_combout $end
$var wire 1 !! CountCounter[5]~43 $end
$var wire 1 "! CountCounter[6]~44_combout $end
$var wire 1 #! CountCounter[6]~45 $end
$var wire 1 $! CountCounter[7]~46_combout $end
$var wire 1 %! sEn~2_combout $end
$var wire 1 &! CountCounter[7]~47 $end
$var wire 1 '! CountCounter[8]~48_combout $end
$var wire 1 (! CountCounter[8]~49 $end
$var wire 1 )! CountCounter[9]~50_combout $end
$var wire 1 *! CountCounter[9]~51 $end
$var wire 1 +! CountCounter[10]~52_combout $end
$var wire 1 ,! CountCounter[10]~53 $end
$var wire 1 -! CountCounter[11]~54_combout $end
$var wire 1 .! sEn~3_combout $end
$var wire 1 /! CountCounter[11]~55 $end
$var wire 1 0! CountCounter[12]~56_combout $end
$var wire 1 1! CountCounter[12]~57 $end
$var wire 1 2! CountCounter[13]~58_combout $end
$var wire 1 3! CountCounter[13]~59 $end
$var wire 1 4! CountCounter[14]~60_combout $end
$var wire 1 5! CountCounter[14]~61 $end
$var wire 1 6! CountCounter[15]~62_combout $end
$var wire 1 7! sEn~4_combout $end
$var wire 1 8! sEn~5_combout $end
$var wire 1 9! CountCounter[15]~63 $end
$var wire 1 :! CountCounter[16]~64_combout $end
$var wire 1 ;! CountCounter[16]~65 $end
$var wire 1 <! CountCounter[17]~66_combout $end
$var wire 1 =! CountCounter[17]~67 $end
$var wire 1 >! CountCounter[18]~68_combout $end
$var wire 1 ?! CountCounter[18]~69 $end
$var wire 1 @! CountCounter[19]~70_combout $end
$var wire 1 A! sEn~6_combout $end
$var wire 1 B! CountCounter[19]~71 $end
$var wire 1 C! CountCounter[20]~72_combout $end
$var wire 1 D! CountCounter[20]~73 $end
$var wire 1 E! CountCounter[21]~74_combout $end
$var wire 1 F! CountCounter[21]~75 $end
$var wire 1 G! CountCounter[22]~76_combout $end
$var wire 1 H! CountCounter[22]~77 $end
$var wire 1 I! CountCounter[23]~78_combout $end
$var wire 1 J! sEn~7_combout $end
$var wire 1 K! CountCounter[23]~79 $end
$var wire 1 L! CountCounter[24]~80_combout $end
$var wire 1 M! CountCounter[24]~81 $end
$var wire 1 N! CountCounter[25]~82_combout $end
$var wire 1 O! CountCounter[25]~83 $end
$var wire 1 P! CountCounter[26]~84_combout $end
$var wire 1 Q! CountCounter[26]~85 $end
$var wire 1 R! CountCounter[27]~86_combout $end
$var wire 1 S! sEn~8_combout $end
$var wire 1 T! CountCounter[27]~87 $end
$var wire 1 U! CountCounter[28]~88_combout $end
$var wire 1 V! CountCounter[28]~89 $end
$var wire 1 W! CountCounter[29]~90_combout $end
$var wire 1 X! CountCounter[29]~91 $end
$var wire 1 Y! CountCounter[30]~92_combout $end
$var wire 1 Z! sEn~9_combout $end
$var wire 1 [! sEn~10_combout $end
$var wire 1 \! sEn~11_combout $end
$var wire 1 ]! sEn~q $end
$var wire 1 ^! Counter[4]~34_combout $end
$var wire 1 _! Counter[1]~36 $end
$var wire 1 `! Counter[2]~37_combout $end
$var wire 1 a! Counter[2]~38 $end
$var wire 1 b! Counter[3]~39_combout $end
$var wire 1 c! LessThan0~0_combout $end
$var wire 1 d! Counter[3]~40 $end
$var wire 1 e! Counter[4]~41_combout $end
$var wire 1 f! Counter[4]~42 $end
$var wire 1 g! Counter[5]~43_combout $end
$var wire 1 h! Counter[5]~44 $end
$var wire 1 i! Counter[6]~45_combout $end
$var wire 1 j! Counter[6]~46 $end
$var wire 1 k! Counter[7]~47_combout $end
$var wire 1 l! LessThan0~1_combout $end
$var wire 1 m! Counter[7]~48 $end
$var wire 1 n! Counter[8]~49_combout $end
$var wire 1 o! Counter[8]~50 $end
$var wire 1 p! Counter[9]~51_combout $end
$var wire 1 q! Counter[9]~52 $end
$var wire 1 r! Counter[10]~53_combout $end
$var wire 1 s! Counter[10]~54 $end
$var wire 1 t! Counter[11]~55_combout $end
$var wire 1 u! LessThan0~2_combout $end
$var wire 1 v! Counter[11]~56 $end
$var wire 1 w! Counter[12]~57_combout $end
$var wire 1 x! Counter[12]~58 $end
$var wire 1 y! Counter[13]~59_combout $end
$var wire 1 z! Counter[13]~60 $end
$var wire 1 {! Counter[14]~61_combout $end
$var wire 1 |! Counter[14]~62 $end
$var wire 1 }! Counter[15]~63_combout $end
$var wire 1 ~! LessThan0~3_combout $end
$var wire 1 !" LessThan0~4_combout $end
$var wire 1 "" Counter[15]~64 $end
$var wire 1 #" Counter[16]~65_combout $end
$var wire 1 $" Counter[16]~66 $end
$var wire 1 %" Counter[17]~67_combout $end
$var wire 1 &" Counter[17]~68 $end
$var wire 1 '" Counter[18]~69_combout $end
$var wire 1 (" Counter[18]~70 $end
$var wire 1 )" Counter[19]~71_combout $end
$var wire 1 *" LessThan0~5_combout $end
$var wire 1 +" Counter[19]~72 $end
$var wire 1 ," Counter[20]~73_combout $end
$var wire 1 -" Counter[20]~74 $end
$var wire 1 ." Counter[21]~75_combout $end
$var wire 1 /" Counter[21]~76 $end
$var wire 1 0" Counter[22]~77_combout $end
$var wire 1 1" Counter[22]~78 $end
$var wire 1 2" Counter[23]~79_combout $end
$var wire 1 3" LessThan0~6_combout $end
$var wire 1 4" Counter[23]~80 $end
$var wire 1 5" Counter[24]~81_combout $end
$var wire 1 6" Counter[24]~82 $end
$var wire 1 7" Counter[25]~83_combout $end
$var wire 1 8" Counter[25]~84 $end
$var wire 1 9" Counter[26]~85_combout $end
$var wire 1 :" Counter[26]~86 $end
$var wire 1 ;" Counter[27]~87_combout $end
$var wire 1 <" LessThan0~7_combout $end
$var wire 1 =" Counter[27]~88 $end
$var wire 1 >" Counter[28]~89_combout $end
$var wire 1 ?" Counter[28]~90 $end
$var wire 1 @" Counter[29]~91_combout $end
$var wire 1 A" Counter[29]~92 $end
$var wire 1 B" Counter[30]~93_combout $end
$var wire 1 C" LessThan0~8_combout $end
$var wire 1 D" LessThan0~9_combout $end
$var wire 1 E" Counter[4]~33_combout $end
$var wire 1 F" Mux15~0_combout $end
$var wire 1 G" Mux14~0_combout $end
$var wire 1 H" Mux13~0_combout $end
$var wire 1 I" Mux12~0_combout $end
$var wire 1 J" Mux9~0_combout $end
$var wire 1 K" Mux8~0_combout $end
$var wire 1 L" Mux6~0_combout $end
$var wire 1 M" Mux5~0_combout $end
$var wire 1 N" Mux4~0_combout $end
$var wire 1 O" Mux3~0_combout $end
$var wire 1 P" Mux0~0_combout $end
$var wire 1 Q" Counter [30] $end
$var wire 1 R" Counter [29] $end
$var wire 1 S" Counter [28] $end
$var wire 1 T" Counter [27] $end
$var wire 1 U" Counter [26] $end
$var wire 1 V" Counter [25] $end
$var wire 1 W" Counter [24] $end
$var wire 1 X" Counter [23] $end
$var wire 1 Y" Counter [22] $end
$var wire 1 Z" Counter [21] $end
$var wire 1 [" Counter [20] $end
$var wire 1 \" Counter [19] $end
$var wire 1 ]" Counter [18] $end
$var wire 1 ^" Counter [17] $end
$var wire 1 _" Counter [16] $end
$var wire 1 `" Counter [15] $end
$var wire 1 a" Counter [14] $end
$var wire 1 b" Counter [13] $end
$var wire 1 c" Counter [12] $end
$var wire 1 d" Counter [11] $end
$var wire 1 e" Counter [10] $end
$var wire 1 f" Counter [9] $end
$var wire 1 g" Counter [8] $end
$var wire 1 h" Counter [7] $end
$var wire 1 i" Counter [6] $end
$var wire 1 j" Counter [5] $end
$var wire 1 k" Counter [4] $end
$var wire 1 l" Counter [3] $end
$var wire 1 m" Counter [2] $end
$var wire 1 n" Counter [1] $end
$var wire 1 o" Counter [0] $end
$var wire 1 p" CountCounter [30] $end
$var wire 1 q" CountCounter [29] $end
$var wire 1 r" CountCounter [28] $end
$var wire 1 s" CountCounter [27] $end
$var wire 1 t" CountCounter [26] $end
$var wire 1 u" CountCounter [25] $end
$var wire 1 v" CountCounter [24] $end
$var wire 1 w" CountCounter [23] $end
$var wire 1 x" CountCounter [22] $end
$var wire 1 y" CountCounter [21] $end
$var wire 1 z" CountCounter [20] $end
$var wire 1 {" CountCounter [19] $end
$var wire 1 |" CountCounter [18] $end
$var wire 1 }" CountCounter [17] $end
$var wire 1 ~" CountCounter [16] $end
$var wire 1 !# CountCounter [15] $end
$var wire 1 "# CountCounter [14] $end
$var wire 1 ## CountCounter [13] $end
$var wire 1 $# CountCounter [12] $end
$var wire 1 %# CountCounter [11] $end
$var wire 1 &# CountCounter [10] $end
$var wire 1 '# CountCounter [9] $end
$var wire 1 (# CountCounter [8] $end
$var wire 1 )# CountCounter [7] $end
$var wire 1 *# CountCounter [6] $end
$var wire 1 +# CountCounter [5] $end
$var wire 1 ,# CountCounter [4] $end
$var wire 1 -# CountCounter [3] $end
$var wire 1 .# CountCounter [2] $end
$var wire 1 /# CountCounter [1] $end
$var wire 1 0# CountCounter [0] $end
$upscope $end
$upscope $end
$enddefinitions $end
#0
$dumpvars
0!
0"
1#
03
02
01
00
0/
0.
0-
0,
0+
0*
0)
0(
0'
0&
0%
0$
0C
0B
0A
0@
0?
0>
0=
0<
0;
0:
09
08
07
06
05
04
xD
0E
1F
xG
1H
1I
1J
0K
0L
0M
0N
0O
0P
0Q
0R
0S
0T
0U
0V
0W
0X
0Y
0Z
0[
0\
0]
0^
0_
0`
0a
0b
0c
0d
0e
0f
0g
0h
0i
0j
0k
1l
0m
0n
1o
0p
1q
1r
0s
0t
0u
1v
0w
0x
0y
0z
1{
0|
0}
0~
1!!
0"!
0#!
0$!
0%!
1&!
0'!
0(!
0)!
1*!
0+!
0,!
0-!
0.!
1/!
00!
01!
02!
13!
04!
05!
06!
07!
08!
19!
0:!
0;!
0<!
1=!
0>!
0?!
0@!
0A!
1B!
0C!
0D!
0E!
1F!
0G!
0H!
0I!
0J!
1K!
0L!
0M!
0N!
1O!
0P!
0Q!
0R!
0S!
1T!
0U!
0V!
0W!
1X!
0Y!
0Z!
0[!
0\!
0]!
1^!
1_!
0`!
0a!
0b!
1c!
1d!
0e!
0f!
0g!
1h!
0i!
0j!
0k!
1l!
1m!
0n!
0o!
0p!
1q!
0r!
0s!
0t!
1u!
1v!
0w!
0x!
0y!
1z!
0{!
0|!
0}!
1~!
1!"
1""
0#"
0$"
0%"
1&"
0'"
0("
0)"
1*"
1+"
0,"
0-"
0."
1/"
00"
01"
02"
13"
14"
05"
06"
07"
18"
09"
0:"
0;"
1<"
1="
0>"
0?"
0@"
1A"
0B"
1C"
1D"
1E"
0F"
0G"
0H"
0I"
0J"
0K"
0L"
0M"
0N"
0O"
0P"
0o"
0n"
0m"
0l"
0k"
0j"
0i"
0h"
0g"
0f"
0e"
0d"
0c"
0b"
0a"
0`"
0_"
0^"
0]"
0\"
0["
0Z"
0Y"
0X"
0W"
0V"
0U"
0T"
0S"
0R"
0Q"
00#
0/#
0.#
0-#
0,#
0+#
0*#
0)#
0(#
0'#
0&#
0%#
0$#
0##
0"#
0!#
0~"
0}"
0|"
0{"
0z"
0y"
0x"
0w"
0v"
0u"
0t"
0s"
0r"
0q"
0p"
$end
#10000
1!
0D
1k
#20000
0!
1D
0k
#30000
1!
0D
1k
#40000
0!
1D
0k
#50000
1!
0D
1k
#60000
0!
1D
0k
#70000
1!
0D
1k
#80000
1"
0#
0!
1p
0o
1D
0k
0q
0E"
#90000
1!
0D
1k
1o"
1m
1O"
1K"
1J"
1I"
1G"
1F"
0l
1K
1[
1L
1\
1N
1O
1P
1^
1_
1`
1Q
1X
1a
1h
1R
1b
1W
1g
13
1C
12
1B
10
1/
1.
1@
1?
1>
1-
1&
1=
16
1,
1<
1'
17
1n
#100000
0!
1D
0k
#110000
1!
0D
1k
0o"
1n"
0m
0_!
1N"
1L"
0J"
0I"
0F"
1l
0n
0K
0[
0N
0O
0P
0^
0_
0`
0Q
0X
0a
0h
1T
1Y
1d
1i
1V
1f
1_!
03
0C
00
0/
0.
0@
0?
0>
0-
0&
0=
06
1*
1%
1:
15
1(
18
1n
1`!
0`!
#120000
0!
1D
0k
#130000
1!
0D
1k
1o"
1m
0N"
1M"
0K"
1J"
0G"
1F"
0l
1K
1[
0L
0\
1Q
1X
1a
1h
0R
0b
1U
1e
0V
0f
0_!
13
1C
02
0B
1-
1&
1=
16
0,
0<
1)
19
0(
08
0n
1`!
#140000
0!
1D
0k
#150000
1!
0D
1k
0o"
1m"
0n"
0m
1a!
1_!
1N"
1K"
1I"
1H"
1G"
1l
0`!
1n
1L
1\
1M
1S
1]
1c
1N
1O
1P
1^
1_
1`
1R
1b
1V
1f
0a!
12
1B
11
1+
1A
1;
10
1/
1.
1@
1?
1>
1,
1<
1(
18
0n
1b!
1`!
0b!
#160000
0!
1D
0k
#170000
1!
0D
1k
1o"
1m
0N"
0K"
0I"
0H"
0G"
0l
0L
0\
0M
0S
0]
0c
0N
0O
0P
0^
0_
0`
0R
0b
0V
0f
02
0B
01
0+
0A
0;
00
0/
0.
0@
0?
0>
0,
0<
0(
08
1n
#180000
0!
1D
0k
#190000
1!
0D
1k
0o"
1n"
0m
0_!
1N"
0M"
1K"
0J"
1G"
0F"
1l
0n
0K
0[
1L
1\
0Q
0X
0a
0h
1R
1b
0U
0e
1V
1f
1_!
1a!
03
0C
12
1B
0-
0&
0=
06
1,
1<
0)
09
1(
18
1n
0`!
0a!
1`!
1b!
0b!
#200000
0!
1D
0k
#210000
1!
0D
1k
1o"
1m
0N"
0L"
1J"
1I"
1F"
0l
1K
1[
1N
1O
1P
1^
1_
1`
1Q
1X
1a
1h
0T
0Y
0d
0i
0V
0f
0_!
13
1C
10
1/
1.
1@
1?
1>
1-
1&
1=
16
0*
0%
0:
05
0(
08
0n
1a!
0`!
1b!
#220000
0!
1D
0k
#230000
1!
0D
1k
0o"
1l"
0m"
0n"
0m
0d!
0a!
1_!
0O"
0K"
0J"
0I"
0G"
0F"
1l
0b!
1`!
1n
0K
0[
0L
0\
0N
0O
0P
0^
0_
0`
0Q
0X
0a
0h
0R
0b
0W
0g
1d!
03
0C
02
0B
00
0/
0.
0@
0?
0>
0-
0&
0=
06
0,
0<
0'
07
0n
1e!
1b!
0`!
0e!
#240000
0!
1D
0k
#250000
1!
0D
1k
1o"
1m
1P"
1N"
1M"
1L"
1H"
1F"
0l
1K
1[
1M
1S
1]
1c
1T
1Y
1d
1i
1U
1e
1V
1f
1Z
1j
13
1C
11
1+
1A
1;
1*
1%
1:
15
1)
19
1(
18
1$
14
1n
#260000
0!
1D
0k
#270000
1!
0D
1k
0o"
1n"
0m
0_!
0N"
0L"
1J"
1I"
1G"
0F"
1l
0n
0K
0[
1L
1\
1N
1O
1P
1^
1_
1`
1Q
1X
1a
1h
0T
0Y
0d
0i
0V
0f
1_!
03
0C
12
1B
10
1/
1.
1@
1?
1>
1-
1&
1=
16
0*
0%
0:
05
0(
08
1n
1`!
0`!
#280000
0!
1D
0k
#290000
1!
0D
1k
1o"
1m
1N"
0M"
1K"
0J"
1F"
0l
1K
1[
0Q
0X
0a
0h
1R
1b
0U
0e
1V
1f
0_!
13
1C
0-
0&
0=
06
1,
1<
0)
09
1(
18
0n
1`!
#300000
0!
1D
0k
#310000
1!
0D
1k
0o"
1m"
0n"
0m
1a!
1_!
0N"
0K"
0I"
0H"
0G"
1l
0`!
1n
0L
0\
0M
0S
0]
0c
0N
0O
0P
0^
0_
0`
0R
0b
0V
0f
0d!
0a!
02
0B
01
0+
0A
0;
00
0/
0.
0@
0?
0>
0,
0<
0(
08
0n
0b!
1`!
1d!
1e!
1b!
0e!
#320000
0!
1D
0k
#330000
1!
0D
1k
1o"
1m
1N"
1K"
1I"
1H"
1G"
0l
1L
1\
1M
1S
1]
1c
1N
1O
1P
1^
1_
1`
1R
1b
1V
1f
12
1B
11
1+
1A
1;
10
1/
1.
1@
1?
1>
1,
1<
1(
18
1n
#340000
0!
1D
0k
#350000
1!
0D
1k
0o"
1n"
0m
0_!
0N"
1M"
0K"
1J"
0F"
1l
0n
0K
0[
1Q
1X
1a
1h
0R
0b
1U
1e
0V
0f
1_!
1a!
03
0C
1-
1&
1=
16
0,
0<
1)
19
0(
08
1n
0`!
0a!
0d!
1`!
0b!
1d!
1b!
1e!
0e!
#360000
0!
1D
0k
#370000
1!
0D
1k
1o"
0c!
1m
1N"
1L"
0J"
0I"
0G"
1F"
0l
1K
1[
0L
0\
0N
0O
0P
0^
0_
0`
0Q
0X
0a
0h
1T
1Y
1d
1i
1V
1f
0!"
0_!
13
1C
02
0B
00
0/
0.
0@
0?
0>
0-
0&
0=
06
1*
1%
1:
15
1(
18
0n
0D"
1a!
0`!
1E"
1s
0d!
1\!
0b!
1e!
#380000
0!
1D
0k
#390000
1!
0D
1k
0o"
0l"
0m"
0n"
1]!
10#
1c!
0m
1d!
0a!
1_!
0^!
0s
1z
1t
0P"
0N"
0M"
0L"
0H"
0F"
1l
1b!
1`!
1n
0r
0K
0[
0M
0S
0]
0c
0T
0Y
0d
0i
0U
0e
0V
0f
0Z
0j
1!"
18!
03
0C
01
0+
0A
0;
0*
0%
0:
05
0)
09
0(
08
0$
04
0n
0e!
0b!
0`!
1u
1D"
1[!
0E"
#400000
0!
1D
0k
#410000
1!
0D
1k
#420000
0!
1D
0k
#430000
1!
0D
1k
#440000
0!
1D
0k
#450000
1!
0D
1k
#460000
0!
1D
0k
#470000
1!
0D
1k
#480000
0!
1D
0k
#490000
1!
0D
1k
#500000
0!
1D
0k
#510000
1!
0D
1k
#520000
0!
1D
0k
#530000
1!
0D
1k
#540000
0!
1D
0k
#550000
1!
0D
1k
#560000
0!
1D
0k
#570000
1!
0D
1k
#580000
0!
1D
0k
#590000
1!
0D
1k
#600000
0!
1D
0k
#610000
1!
0D
1k
#620000
0!
1D
0k
#630000
1!
0D
1k
#640000
0!
1D
0k
#650000
1!
0D
1k
#660000
0!
1D
0k
#670000
1!
0D
1k
#680000
0!
1D
0k
#690000
1!
0D
1k
#700000
0!
1D
0k
#710000
1!
0D
1k
#720000
0!
1D
0k
#730000
1!
0D
1k
#740000
0!
1D
0k
#750000
1!
0D
1k
#760000
0!
1D
0k
#770000
1!
0D
1k
#780000
0!
1D
0k
#790000
1!
0D
1k
#800000
0!
1D
0k
#810000
1!
0D
1k
#820000
0!
1D
0k
#830000
1!
0D
1k
#840000
0!
1D
0k
#850000
1!
0D
1k
#860000
0!
1D
0k
#870000
1!
0D
1k
#880000
0!
1D
0k
#890000
1!
0D
1k
#900000
0!
1D
0k
#910000
1!
0D
1k
#920000
0!
1D
0k
#930000
1!
0D
1k
#940000
0!
1D
0k
#950000
1!
0D
1k
#960000
0!
1D
0k
#970000
1!
0D
1k
#980000
0!
1D
0k
#990000
1!
0D
1k
