VHD/simulation/qsim/TopLevel.msim.vcd
$comment
	File created using the following command:
		vcd file TopLevel.msim.vcd -direction
$end
$date
	Sat May 23 20:42:44 2015
$end
$version
	ModelSim Version 10.3c
$end
$timescale
	1ps
$end

$scope module C4Rom_vlg_vec_tst $end
$var reg 1 ! iClk $end
$var reg 1 " iEn $end
$var reg 1 # iRst $end
$var wire 1 $ oData [15] $end
$var wire 1 % oData [14] $end
$var wire 1 & oData [13] $end
$var wire 1 ' oData [12] $end
$var wire 1 ( oData [11] $end
$var wire 1 ) oData [10] $end
$var wire 1 * oData [9] $end
$var wire 1 + oData [8] $end
$var wire 1 , oData [7] $end
$var wire 1 - oData [6] $end
$var wire 1 . oData [5] $end
$var wire 1 / oData [4] $end
$var wire 1 0 oData [3] $end
$var wire 1 1 oData [2] $end
$var wire 1 2 oData [1] $end
$var wire 1 3 oData [0] $end
$var wire 1 4 sampler $end

$scope module i1 $end
$var wire 1 5 gnd $end
$var wire 1 6 vcc $end
$var wire 1 7 unknown $end
$var tri1 1 8 devclrn $end
$var tri1 1 9 devpor $end
$var tri1 1 : devoe $end
$var wire 1 ; oData[0]~output_o $end
$var wire 1 < oData[1]~output_o $end
$var wire 1 = oData[2]~output_o $end
$var wire 1 > oData[3]~output_o $end
$var wire 1 ? oData[4]~output_o $end
$var wire 1 @ oData[5]~output_o $end
$var wire 1 A oData[6]~output_o $end
$var wire 1 B oData[7]~output_o $end
$var wire 1 C oData[8]~output_o $end
$var wire 1 D oData[9]~output_o $end
$var wire 1 E oData[10]~output_o $end
$var wire 1 F oData[11]~output_o $end
$var wire 1 G oData[12]~output_o $end
$var wire 1 H oData[13]~output_o $end
$var wire 1 I oData[14]~output_o $end
$var wire 1 J oData[15]~output_o $end
$var wire 1 K iClk~input_o $end
$var wire 1 L Counter[0]~31_combout $end
$var wire 1 M iRst~input_o $end
$var wire 1 N Counter[0]~32 $end
$var wire 1 O Counter[1]~43_combout $end
$var wire 1 P iEn~input_o $end
$var wire 1 Q Counter[23]~42_combout $end
$var wire 1 R Counter[1]~44 $end
$var wire 1 S Counter[2]~45_combout $end
$var wire 1 T Counter[2]~46 $end
$var wire 1 U Counter[3]~47_combout $end
$var wire 1 V Counter[3]~48 $end
$var wire 1 W Counter[4]~49_combout $end
$var wire 1 X Counter[4]~50 $end
$var wire 1 Y Counter[5]~51_combout $end
$var wire 1 Z Counter[5]~52 $end
$var wire 1 [ Counter[6]~53_combout $end
$var wire 1 \ Counter[6]~54 $end
$var wire 1 ] Counter[7]~55_combout $end
$var wire 1 ^ Counter[7]~56 $end
$var wire 1 _ Counter[8]~57_combout $end
$var wire 1 ` Counter[8]~58 $end
$var wire 1 a Counter[9]~59_combout $end
$var wire 1 b Counter[9]~60 $end
$var wire 1 c Counter[10]~61_combout $end
$var wire 1 d Counter[23]~33_combout $end
$var wire 1 e Counter[10]~62 $end
$var wire 1 f Counter[11]~63_combout $end
$var wire 1 g Counter[11]~64 $end
$var wire 1 h Counter[12]~65_combout $end
$var wire 1 i Counter[12]~66 $end
$var wire 1 j Counter[13]~67_combout $end
$var wire 1 k Counter[13]~68 $end
$var wire 1 l Counter[14]~69_combout $end
$var wire 1 m Counter[23]~34_combout $end
$var wire 1 n Counter[14]~70 $end
$var wire 1 o Counter[15]~71_combout $end
$var wire 1 p Counter[15]~72 $end
$var wire 1 q Counter[16]~73_combout $end
$var wire 1 r Counter[16]~74 $end
$var wire 1 s Counter[17]~75_combout $end
$var wire 1 t Counter[17]~76 $end
$var wire 1 u Counter[18]~77_combout $end
$var wire 1 v Counter[23]~35_combout $end
$var wire 1 w Counter[18]~78 $end
$var wire 1 x Counter[19]~79_combout $end
$var wire 1 y Counter[19]~80 $end
$var wire 1 z Counter[20]~81_combout $end
$var wire 1 { Counter[20]~82 $end
$var wire 1 | Counter[21]~83_combout $end
$var wire 1 } Counter[21]~84 $end
$var wire 1 ~ Counter[22]~85_combout $end
$var wire 1 !! Counter[23]~36_combout $end
$var wire 1 "! Counter[23]~37_combout $end
$var wire 1 #! Counter[22]~86 $end
$var wire 1 $! Counter[23]~87_combout $end
$var wire 1 %! Counter[23]~88 $end
$var wire 1 &! Counter[24]~89_combout $end
$var wire 1 '! Counter[24]~90 $end
$var wire 1 (! Counter[25]~91_combout $end
$var wire 1 )! Counter[25]~92 $end
$var wire 1 *! Counter[26]~93_combout $end
$var wire 1 +! Counter[23]~38_combout $end
$var wire 1 ,! Counter[26]~94 $end
$var wire 1 -! Counter[27]~95_combout $end
$var wire 1 .! Counter[27]~96 $end
$var wire 1 /! Counter[28]~97_combout $end
$var wire 1 0! Counter[23]~39_combout $end
$var wire 1 1! Counter[28]~98 $end
$var wire 1 2! Counter[29]~99_combout $end
$var wire 1 3! Counter[29]~100 $end
$var wire 1 4! Counter[30]~101_combout $end
$var wire 1 5! Counter[23]~40_combout $end
$var wire 1 6! LessThan0~0_combout $end
$var wire 1 7! LessThan0~1_combout $end
$var wire 1 8! Counter[23]~41_combout $end
$var wire 1 9! Mux15~2_combout $end
$var wire 1 :! Mux15~3_combout $end
$var wire 1 ;! Mux15~4_combout $end
$var wire 1 <! Mux15~5_combout $end
$var wire 1 =! Mux15~6_combout $end
$var wire 1 >! Mux15~7_combout $end
$var wire 1 ?! Mux15~8_combout $end
$var wire 1 @! Mux15~9_combout $end
$var wire 1 A! Mux15~10_combout $end
$var wire 1 B! Mux15~11_combout $end
$var wire 1 C! Mux15~12_combout $end
$var wire 1 D! Mux15~13_combout $end
$var wire 1 E! Mux15~14_combout $end
$var wire 1 F! Mux6~2_combout $end
$var wire 1 G! Mux15~16_combout $end
$var wire 1 H! Mux15~21_combout $end
$var wire 1 I! Mux15~17_combout $end
$var wire 1 J! Mux15~18_combout $end
$var wire 1 K! Mux15~19_combout $end
$var wire 1 L! Mux15~20_combout $end
$var wire 1 M! Mux14~2_combout $end
$var wire 1 N! Mux14~3_combout $end
$var wire 1 O! Mux14~4_combout $end
$var wire 1 P! Mux14~5_combout $end
$var wire 1 Q! Mux14~6_combout $end
$var wire 1 R! Mux14~7_combout $end
$var wire 1 S! Mux14~8_combout $end
$var wire 1 T! Mux14~9_combout $end
$var wire 1 U! Mux14~10_combout $end
$var wire 1 V! Mux14~11_combout $end
$var wire 1 W! Mux14~12_combout $end
$var wire 1 X! Mux14~13_combout $end
$var wire 1 Y! Mux14~14_combout $end
$var wire 1 Z! Mux14~15_combout $end
$var wire 1 [! Mux14~20_combout $end
$var wire 1 \! Mux14~16_combout $end
$var wire 1 ]! Mux14~17_combout $end
$var wire 1 ^! Mux14~18_combout $end
$var wire 1 _! Mux14~19_combout $end
$var wire 1 `! Mux13~2_combout $end
$var wire 1 a! Mux13~3_combout $end
$var wire 1 b! Mux13~4_combout $end
$var wire 1 c! Mux13~5_combout $end
$var wire 1 d! Mux13~6_combout $end
$var wire 1 e! Mux13~7_combout $end
$var wire 1 f! Mux13~8_combout $end
$var wire 1 g! Mux13~9_combout $end
$var wire 1 h! Mux13~10_combout $end
$var wire 1 i! Mux13~11_combout $end
$var wire 1 j! Mux13~12_combout $end
$var wire 1 k! Mux13~13_combout $end
$var wire 1 l! Mux13~14_combout $end
$var wire 1 m! Mux13~15_combout $end
$var wire 1 n! Mux13~20_combout $end
$var wire 1 o! Mux13~16_combout $end
$var wire 1 p! Mux13~17_combout $end
$var wire 1 q! Mux13~18_combout $end
$var wire 1 r! Mux13~19_combout $end
$var wire 1 s! Mux12~0_combout $end
$var wire 1 t! Mux12~1_combout $end
$var wire 1 u! Mux12~2_combout $end
$var wire 1 v! Mux12~3_combout $end
$var wire 1 w! Mux12~4_combout $end
$var wire 1 x! Mux12~5_combout $end
$var wire 1 y! Mux12~6_combout $end
$var wire 1 z! Mux12~7_combout $end
$var wire 1 {! Mux12~8_combout $end
$var wire 1 |! Mux12~9_combout $end
$var wire 1 }! Mux12~10_combout $end
$var wire 1 ~! Mux12~11_combout $end
$var wire 1 !" Mux12~12_combout $end
$var wire 1 "" Mux12~13_combout $end
$var wire 1 #" Mux12~14_combout $end
$var wire 1 $" Mux12~15_combout $end
$var wire 1 %" Mux12~16_combout $end
$var wire 1 &" Mux12~17_combout $end
$var wire 1 '" Mux12~18_combout $end
$var wire 1 (" Mux11~2_combout $end
$var wire 1 )" Mux11~3_combout $end
$var wire 1 *" Mux11~4_combout $end
$var wire 1 +" Mux11~5_combout $end
$var wire 1 ," Mux11~6_combout $end
$var wire 1 -" Mux11~7_combout $end
$var wire 1 ." Mux11~8_combout $end
$var wire 1 /" Mux11~9_combout $end
$var wire 1 0" Mux11~10_combout $end
$var wire 1 1" Mux11~11_combout $end
$var wire 1 2" Mux11~12_combout $end
$var wire 1 3" Mux11~13_combout $end
$var wire 1 4" Mux11~14_combout $end
$var wire 1 5" Mux11~15_combout $end
$var wire 1 6" Mux11~20_combout $end
$var wire 1 7" Mux11~16_combout $end
$var wire 1 8" Mux11~17_combout $end
$var wire 1 9" Mux11~18_combout $end
$var wire 1 :" Mux11~19_combout $end
$var wire 1 ;" Mux10~0_combout $end
$var wire 1 <" Mux10~1_combout $end
$var wire 1 =" Mux10~2_combout $end
$var wire 1 >" Mux10~3_combout $end
$var wire 1 ?" Mux10~4_combout $end
$var wire 1 @" Mux10~5_combout $end
$var wire 1 A" Mux10~6_combout $end
$var wire 1 B" Mux10~7_combout $end
$var wire 1 C" Mux10~8_combout $end
$var wire 1 D" Mux10~9_combout $end
$var wire 1 E" Mux10~10_combout $end
$var wire 1 F" Mux10~11_combout $end
$var wire 1 G" Mux10~12_combout $end
$var wire 1 H" Mux10~13_combout $end
$var wire 1 I" Mux10~14_combout $end
$var wire 1 J" Mux10~15_combout $end
$var wire 1 K" Mux15~15_combout $end
$var wire 1 L" Mux10~16_combout $end
$var wire 1 M" Mux10~17_combout $end
$var wire 1 N" Mux9~0_combout $end
$var wire 1 O" Mux9~1_combout $end
$var wire 1 P" Mux9~2_combout $end
$var wire 1 Q" Mux9~3_combout $end
$var wire 1 R" Mux9~4_combout $end
$var wire 1 S" Mux9~5_combout $end
$var wire 1 T" Mux9~6_combout $end
$var wire 1 U" Mux9~7_combout $end
$var wire 1 V" Mux9~8_combout $end
$var wire 1 W" Mux9~9_combout $end
$var wire 1 X" Mux9~10_combout $end
$var wire 1 Y" Mux9~11_combout $end
$var wire 1 Z" Mux9~12_combout $end
$var wire 1 [" Mux9~13_combout $end
$var wire 1 \" Mux9~14_combout $end
$var wire 1 ]" Mux9~15_combout $end
$var wire 1 ^" Mux9~16_combout $end
$var wire 1 _" Mux9~17_combout $end
$var wire 1 `" Mux9~18_combout $end
$var wire 1 a" Mux8~0_combout $end
$var wire 1 b" Mux8~16_combout $end
$var wire 1 c" Mux8~17_combout $end
$var wire 1 d" Mux8~1_combout $end
$var wire 1 e" Mux8~2_combout $end
$var wire 1 f" Mux8~3_combout $end
$var wire 1 g" Mux8~4_combout $end
$var wire 1 h" Mux8~5_combout $end
$var wire 1 i" Mux8~6_combout $end
$var wire 1 j" Mux8~7_combout $end
$var wire 1 k" Mux8~8_combout $end
$var wire 1 l" Mux8~9_combout $end
$var wire 1 m" Mux8~10_combout $end
$var wire 1 n" Mux8~11_combout $end
$var wire 1 o" Mux8~12_combout $end
$var wire 1 p" Mux8~13_combout $end
$var wire 1 q" Mux8~14_combout $end
$var wire 1 r" Mux8~15_combout $end
$var wire 1 s" Mux7~0_combout $end
$var wire 1 t" Mux7~1_combout $end
$var wire 1 u" Mux7~2_combout $end
$var wire 1 v" Mux7~3_combout $end
$var wire 1 w" Mux7~4_combout $end
$var wire 1 x" Mux7~5_combout $end
$var wire 1 y" Mux7~6_combout $end
$var wire 1 z" Mux7~7_combout $end
$var wire 1 {" Mux7~8_combout $end
$var wire 1 |" Mux7~9_combout $end
$var wire 1 }" Mux7~10_combout $end
$var wire 1 ~" Mux7~11_combout $end
$var wire 1 !# Mux7~12_combout $end
$var wire 1 "# Mux7~13_combout $end
$var wire 1 ## Mux7~14_combout $end
$var wire 1 $# Mux7~15_combout $end
$var wire 1 %# Mux7~16_combout $end
$var wire 1 &# Mux7~17_combout $end
$var wire 1 '# Mux7~18_combout $end
$var wire 1 (# Mux6~3_combout $end
$var wire 1 )# Mux6~4_combout $end
$var wire 1 *# Mux6~5_combout $end
$var wire 1 +# Mux6~6_combout $end
$var wire 1 ,# Mux6~7_combout $end
$var wire 1 -# Mux6~8_combout $end
$var wire 1 .# Mux6~9_combout $end
$var wire 1 /# Mux6~10_combout $end
$var wire 1 0# Mux6~11_combout $end
$var wire 1 1# Mux6~12_combout $end
$var wire 1 2# Mux6~13_combout $end
$var wire 1 3# Mux6~14_combout $end
$var wire 1 4# Mux6~15_combout $end
$var wire 1 5# Mux6~16_combout $end
$var wire 1 6# Mux6~17_combout $end
$var wire 1 7# Mux6~18_combout $end
$var wire 1 8# Mux6~19_combout $end
$var wire 1 9# Mux6~20_combout $end
$var wire 1 :# Mux6~21_combout $end
$var wire 1 ;# Mux6~22_combout $end
$var wire 1 <# Mux5~2_combout $end
$var wire 1 =# Mux5~3_combout $end
$var wire 1 ># Mux5~4_combout $end
$var wire 1 ?# Mux5~5_combout $end
$var wire 1 @# Mux5~6_combout $end
$var wire 1 A# Mux5~7_combout $end
$var wire 1 B# Mux5~8_combout $end
$var wire 1 C# Mux5~9_combout $end
$var wire 1 D# Mux5~10_combout $end
$var wire 1 E# Mux5~11_combout $end
$var wire 1 F# Mux5~12_combout $end
$var wire 1 G# Mux5~13_combout $end
$var wire 1 H# Mux5~14_combout $end
$var wire 1 I# Mux5~15_combout $end
$var wire 1 J# Mux5~20_combout $end
$var wire 1 K# Mux5~16_combout $end
$var wire 1 L# Mux5~17_combout $end
$var wire 1 M# Mux5~18_combout $end
$var wire 1 N# Mux5~19_combout $end
$var wire 1 O# Mux4~2_combout $end
$var wire 1 P# Mux4~3_combout $end
$var wire 1 Q# Mux4~4_combout $end
$var wire 1 R# Mux4~5_combout $end
$var wire 1 S# Mux4~6_combout $end
$var wire 1 T# Mux4~7_combout $end
$var wire 1 U# Mux4~8_combout $end
$var wire 1 V# Mux4~9_combout $end
$var wire 1 W# Mux4~10_combout $end
$var wire 1 X# Mux4~11_combout $end
$var wire 1 Y# Mux4~12_combout $end
$var wire 1 Z# Mux4~13_combout $end
$var wire 1 [# Mux4~14_combout $end
$var wire 1 \# Mux4~15_combout $end
$var wire 1 ]# Mux4~19_combout $end
$var wire 1 ^# Mux4~20_combout $end
$var wire 1 _# Mux4~16_combout $end
$var wire 1 `# Mux4~17_combout $end
$var wire 1 a# Mux4~18_combout $end
$var wire 1 b# Mux3~2_combout $end
$var wire 1 c# Mux3~3_combout $end
$var wire 1 d# Mux3~4_combout $end
$var wire 1 e# Mux3~15_combout $end
$var wire 1 f# Mux3~13_combout $end
$var wire 1 g# Mux3~11_combout $end
$var wire 1 h# Mux3~14_combout $end
$var wire 1 i# Mux3~10_combout $end
$var wire 1 j# Mux3~12_combout $end
$var wire 1 k# Mux3~16_combout $end
$var wire 1 l# Mux3~5_combout $end
$var wire 1 m# Mux3~6_combout $end
$var wire 1 n# Mux3~7_combout $end
$var wire 1 o# Mux3~8_combout $end
$var wire 1 p# Mux3~9_combout $end
$var wire 1 q# Mux3~17_combout $end
$var wire 1 r# Mux2~2_combout $end
$var wire 1 s# Mux2~14_combout $end
$var wire 1 t# Mux2~15_combout $end
$var wire 1 u# Mux2~3_combout $end
$var wire 1 v# Mux2~4_combout $end
$var wire 1 w# Mux2~12_combout $end
$var wire 1 x# Mux2~13_combout $end
$var wire 1 y# Mux2~5_combout $end
$var wire 1 z# Mux2~6_combout $end
$var wire 1 {# Mux2~7_combout $end
$var wire 1 |# Mux2~10_combout $end
$var wire 1 }# Mux2~11_combout $end
$var wire 1 ~# Mux2~8_combout $end
$var wire 1 !$ Mux2~9_combout $end
$var wire 1 "$ Mux1~2_combout $end
$var wire 1 #$ Mux1~3_combout $end
$var wire 1 $$ Mux1~4_combout $end
$var wire 1 %$ Mux1~5_combout $end
$var wire 1 &$ Mux1~6_combout $end
$var wire 1 '$ Mux1~9_combout $end
$var wire 1 ($ Mux1~7_combout $end
$var wire 1 )$ Mux1~10_combout $end
$var wire 1 *$ Mux1~11_combout $end
$var wire 1 +$ Mux1~8_combout $end
$var wire 1 ,$ Mux0~0_combout $end
$var wire 1 -$ Mux0~1_combout $end
$var wire 1 .$ Mux0~2_combout $end
$var wire 1 /$ Counter [30] $end
$var wire 1 0$ Counter [29] $end
$var wire 1 1$ Counter [28] $end
$var wire 1 2$ Counter [27] $end
$var wire 1 3$ Counter [26] $end
$var wire 1 4$ Counter [25] $end
$var wire 1 5$ Counter [24] $end
$var wire 1 6$ Counter [23] $end
$var wire 1 7$ Counter [22] $end
$var wire 1 8$ Counter [21] $end
$var wire 1 9$ Counter [20] $end
$var wire 1 :$ Counter [19] $end
$var wire 1 ;$ Counter [18] $end
$var wire 1 <$ Counter [17] $end
$var wire 1 =$ Counter [16] $end
$var wire 1 >$ Counter [15] $end
$var wire 1 ?$ Counter [14] $end
$var wire 1 @$ Counter [13] $end
$var wire 1 A$ Counter [12] $end
$var wire 1 B$ Counter [11] $end
$var wire 1 C$ Counter [10] $end
$var wire 1 D$ Counter [9] $end
$var wire 1 E$ Counter [8] $end
$var wire 1 F$ Counter [7] $end
$var wire 1 G$ Counter [6] $end
$var wire 1 H$ Counter [5] $end
$var wire 1 I$ Counter [4] $end
$var wire 1 J$ Counter [3] $end
$var wire 1 K$ Counter [2] $end
$var wire 1 L$ Counter [1] $end
$var wire 1 M$ Counter [0] $end
$upscope $end
$upscope $end
$enddefinitions $end
#0
$dumpvars
0!
0"
1#
03
02
01
00
0/
0.
0-
0,
0+
0*
0)
0(
0'
0&
0%
0$
x4
05
16
x7
18
19
1:
0;
0<
0=
0>
0?
0@
0A
0B
0C
0D
0E
0F
0G
0H
0I
0J
0K
1L
1M
0N
0O
0P
1Q
1R
0S
0T
0U
1V
0W
0X
0Y
1Z
0[
0\
0]
1^
0_
0`
0a
1b
0c
0d
0e
0f
1g
0h
0i
0j
1k
0l
1m
0n
0o
1p
0q
0r
0s
1t
0u
1v
0w
0x
1y
0z
0{
0|
1}
0~
1!!
0"!
0#!
0$!
1%!
0&!
0'!
0(!
1)!
0*!
1+!
0,!
0-!
1.!
0/!
10!
01!
02!
13!
04!
15!
16!
17!
18!
09!
0:!
0;!
1<!
0=!
1>!
0?!
0@!
0A!
0B!
0C!
0D!
0E!
0F!
0G!
0H!
0I!
0J!
0K!
0L!
0M!
0N!
0O!
0P!
0Q!
0R!
0S!
0T!
0U!
0V!
0W!
0X!
0Y!
0Z!
0[!
0\!
0]!
1^!
0_!
0`!
0a!
0b!
1c!
0d!
1e!
0f!
0g!
0h!
0i!
0j!
0k!
0l!
0m!
0n!
0o!
0p!
0q!
0r!
0s!
0t!
1u!
0v!
0w!
0x!
0y!
0z!
0{!
0|!
0}!
0~!
0!"
0""
0#"
0$"
0%"
0&"
0'"
0("
0)"
0*"
0+"
0,"
0-"
0."
0/"
00"
01"
02"
03"
04"
05"
06"
07"
08"
19"
0:"
0;"
0<"
0="
0>"
0?"
0@"
0A"
0B"
0C"
0D"
0E"
0F"
0G"
0H"
0I"
1J"
0K"
0L"
0M"
0N"
0O"
0P"
1Q"
0R"
1S"
0T"
0U"
0V"
0W"
0X"
0Y"
0Z"
0["
0\"
0]"
0^"
0_"
0`"
0a"
1b"
1c"
0d"
1e"
0f"
0g"
0h"
0i"
0j"
0k"
0l"
0m"
0n"
0o"
0p"
0q"
0r"
0s"
0t"
0u"
1v"
0w"
1x"
0y"
0z"
0{"
0|"
0}"
0~"
0!#
0"#
0##
0$#
0%#
0&#
0'#
0(#
0)#
1*#
1+#
0,#
1-#
0.#
0/#
00#
01#
02#
03#
04#
15#
06#
07#
08#
09#
0:#
0;#
0<#
0=#
0>#
1?#
0@#
1A#
0B#
0C#
0D#
0E#
0F#
0G#
0H#
0I#
0J#
0K#
0L#
0M#
0N#
0O#
0P#
0Q#
0R#
0S#
0T#
1U#
0V#
0W#
0X#
0Y#
0Z#
0[#
0\#
0]#
0^#
0_#
0`#
0a#
0b#
0c#
0d#
0e#
0f#
0g#
0h#
0i#
1j#
0k#
0l#
0m#
0n#
0o#
0p#
0q#
1r#
0s#
0t#
0u#
0v#
0w#
0x#
0y#
0z#
0{#
0|#
0}#
0~#
0!$
0"$
0#$
0$$
0%$
0&$
0'$
0($
0)$
0*$
0+$
0,$
0-$
0.$
0M$
0L$
0K$
0J$
0I$
0H$
0G$
0F$
0E$
0D$
0C$
0B$
0A$
0@$
0?$
0>$
0=$
0<$
0;$
0:$
09$
08$
07$
06$
05$
04$
03$
02$
01$
00$
0/$
$end
#10000
1!
04
1K
#20000
0!
14
0K
#30000
1!
04
1K
#40000
0!
14
0K
#50000
1!
04
1K
#60000
0#
0!
0M
14
0K
1d
0Q
1"!
08!
#70000
1!
04
1K
#80000
0!
14
0K
#90000
1!
04
1K
#100000
1"
0!
1P
14
0K
1Q
#110000
1!
04
1K
1M$
1|#
1f#
1\#
1V#
0U#
1S#
1P#
1O#
1K#
1E#
05#
1,#
0*#
1(#
1$#
1"#
1u"
1p"
1o"
1m"
1j"
1h"
1g"
0c"
1]"
1X"
1V"
1T"
1N"
1I"
1H"
1B"
17"
15"
1)"
1""
1}!
1|!
1z!
1w!
1v!
1s!
1j!
1h!
1f!
1d!
1`!
1]!
1\!
1Z!
1W!
1S!
1I!
1C!
1A!
1@!
1=!
1:!
1N
0L
1G#
0+#
0v"
1q"
1i"
0e"
1W"
0J"
1i!
0^!
1K!
1B!
1O
1H#
0-#
0x"
1k"
1Y"
1k!
1D!
1l"
1Z"
1l!
1E!
1N#
1E
1)
1r"
1`"
1r!
1L!
1;
1=
1A
1B
13
11
1-
1,
#120000
0!
14
0K
#130000
1!
04
1K
0M$
1L$
0|#
1d#
1b#
0\#
1W#
0K#
1I#
0E#
16#
1)#
1%#
0$#
0"#
1w"
1t"
0p"
0o"
0j"
0h"
0g"
1c"
0]"
1["
0X"
0V"
0T"
1R"
1P"
1O"
0N"
0I"
0H"
18"
1,"
1*"
0)"
1%"
1~!
0}!
0|!
0w!
1t!
1o!
1m!
0j!
0h!
0f!
0d!
0`!
0\!
0W!
0S!
1P!
0I!
0@!
0=!
0:!
0N
0r#
1@#
1>#
1<#
1/#
1.#
1}"
1{"
1y"
0i"
1d"
1a"
0Y"
0W"
1."
0i!
0<!
0R
1L
0O
1X#
0G#
1&#
0q"
0k"
1i"
1e"
0Q"
1J"
09"
1+"
1&"
1!"
0u!
1q!
0k!
1R!
0K!
0>!
1<!
1R
0?#
1|"
0Z"
1O
1S
1Z#
0H#
0l"
1k"
0S"
1-"
1#"
0l!
1>!
0A#
1~"
0S
0`"
0A
1[#
1l"
1$"
1!#
0-
0N#
0r"
0r!
0=
0B
0E
01
0,
0)
1a#
1r"
1'"
1'#
1C
1>
1B
1F
1+
10
1,
1(
#140000
0"
0!
0P
14
0K
0Q
#150000
1!
04
1K
#160000
0!
14
0K
#170000
1!
04
1K
#180000
0!
14
0K
#190000
1!
04
1K
#200000
0!
14
0K
#210000
1!
04
1K
#220000
0!
14
0K
#230000
1!
04
1K
#240000
0!
14
0K
#250000
1!
04
1K
#260000
0!
14
0K
#270000
1!
04
1K
#280000
0!
14
0K
#290000
1!
04
1K
#300000
0!
14
0K
#310000
1!
04
1K
#320000
0!
14
0K
#330000
1!
04
1K
#340000
0!
14
0K
#350000
1!
04
1K
#360000
0!
14
0K
#370000
1!
04
1K
#380000
0!
14
0K
#390000
1!
04
1K
#400000
0!
14
0K
#410000
1!
04
1K
#420000
0!
14
0K
#430000
1!
04
1K
#440000
0!
14
0K
#450000
1!
04
1K
#460000
0!
14
0K
#470000
1!
04
1K
#480000
0!
14
0K
#490000
1!
04
1K
#500000
0!
14
0K
#510000
1!
04
1K
#520000
0!
14
0K
#530000
1!
04
1K
#540000
1"
0!
1P
14
0K
1Q
#550000
1!
04
1K
1M$
1)$
1$$
1|#
1y#
1w#
1u#
1l#
1g#
1\#
0V#
1Q#
0P#
0O#
0I#
1E#
1?#
19#
06#
13#
1$#
0|"
0w"
1o"
0m"
1j"
1h"
1g"
1^"
1]"
1X"
1V"
1T"
0R"
0P"
1N"
1I"
1E"
0B"
08"
0,"
1)"
1("
0%"
0""
0z!
1x!
0t!
0m!
1j!
1h!
1f!
1d!
1`!
0]!
0Z!
1W!
1S!
0R!
1J!
0C!
1?!
1=!
1:!
1N
0L
0j#
1R#
1G#
1A#
14#
0~"
1q"
0i"
1_"
1Y"
1Q"
0J"
19"
0&"
1y!
1u!
1^!
0<!
0R
0O
1T#
1H#
0!#
0k"
1Z"
1S"
1{!
0>!
1;#
1S
1D
0l"
1*
1N#
0'#
1`"
1A
0C
1E
1-
0+
1)
0r"
0B
0,
#560000
0!
14
0K
#570000
1!
04
1K
0M$
1K$
0L$
0|#
0w#
0l#
0g#
0f#
1Y#
0W#
1K#
1I#
0E#
0?#
09#
15#
03#
0,#
0(#
0%#
1"#
1|"
1w"
0t"
1p"
1m"
0j"
0h"
0]"
0["
0X"
0V"
0T"
1H"
0E"
18"
05"
0*"
0)"
0("
0~!
0x!
0v!
1t!
0j!
1g!
0f!
0d!
0`!
1]!
0W!
1R!
0P!
0A!
1@!
1;!
0:!
0N
1x#
1h#
18#
10#
1z"
0y"
1?"
1="
1;"
1/"
0+"
0!"
1O!
1N!
1M!
1T
1i"
0Y"
1i!
1<!
1R
1L
0S
1O
0x#
1n#
0h#
0X#
0G#
0A#
1:#
04#
0&#
1~"
1k"
0i"
09"
1+"
0-"
0u!
1k!
0^!
0R!
0B!
0<!
11#
1>"
0#"
1P!
0Z"
1>!
0T
0O
1U
1S
1p#
0Z#
0H#
1!#
1l"
0k"
1-"
1l!
0D!
0>!
13#
1@"
0$"
1R!
0;#
0`"
0U
0A
0D
0[#
0l"
0E!
14#
0-
0*
1q#
0N#
1'#
1r"
1r!
0'"
0>
1=
1B
1C
0E
1G
00
11
1,
1+
0)
1'
0a#
0r"
0L!
1;#
1D
0;
0B
0F
1*
03
0,
0(
#580000
0"
0!
0P
14
0K
0Q
#590000
1!
04
1K
#600000
0!
14
0K
#610000
1!
04
1K
#620000
0!
14
0K
#630000
1!
04
1K
#640000
0!
14
0K
#650000
1!
04
1K
#660000
0!
14
0K
#670000
1!
04
1K
#680000
0!
14
0K
#690000
1!
04
1K
#700000
0!
14
0K
#710000
1!
04
1K
#720000
0!
14
0K
#730000
1!
04
1K
#740000
0!
14
0K
#750000
1!
04
1K
#760000
0!
14
0K
#770000
1!
04
1K
#780000
0!
14
0K
#790000
1!
04
1K
#800000
1"
0!
1P
14
0K
1Q
#810000
1!
04
1K
1M$
1,$
1|#
1f#
1_#
1V#
0S#
0Q#
1P#
1O#
0K#
0I#
1E#
1?#
05#
01#
1%#
0$#
0"#
0w"
0u"
0p"
1h"
1f"
0c"
1["
1X"
1V"
1T"
1P"
0N"
1B"
0>"
08"
11"
1)"
1%"
1""
1}!
1|!
1z!
1w!
1v!
1p!
0h!
1d!
1`!
0]!
1\!
0S!
0R!
0P!
0J!
1G!
0@!
0=!
19!
1N
0L
0R#
1G#
1A#
1&#
1v"
1i"
0e"
0Q"
1D"
0@"
19"
13"
0+"
1&"
1!"
0y!
0i!
1^!
1R!
1O
0T#
1H#
1x"
1k"
0S"
1F"
14"
0-"
1#"
0{!
0k!
1l"
1G"
1$"
0l!
1N#
1:"
1?
1E
1/
1)
1r"
1M"
1'"
0r!
0=
1>
1@
1B
01
10
1.
1,
#820000
0!
14
0K
#830000
1!
04
1K
0M$
1L$
0|#
0d#
0_#
1W#
0P#
1L#
1K#
1I#
0E#
0?#
16#
03#
11#
0)#
1(#
1w"
1u"
1t"
1p"
0o"
0m"
0h"
0f"
1c"
0^"
1]"
0["
0X"
0V"
0T"
0P"
0O"
0H"
1>"
01"
1,"
1*"
0)"
1~!
0}!
0|!
0w!
1h!
0d!
0`!
1]!
0\!
1Z!
1S!
0R!
1I!
1C!
0?!
1=!
09!
0N
1}#
1D#
1C#
00#
0.#
0{"
0i"
0d"
1Y"
1W"
0/"
1i!
1<!
0R
1L
0O
0}#
1X#
1M#
0G#
0A#
08#
04#
13#
0v"
0q"
0k"
1e"
0_"
1Q"
1@"
03"
1+"
0!"
1y!
0^!
1K!
1>!
1R
1~#
1E#
01#
0|"
1Z"
1k!
1T
1O
0S
0~#
1Z#
0H#
0:#
14#
0x"
0l"
1S"
04"
1-"
0#"
1{!
0T
1G#
03#
0~"
1l!
0;#
1`"
1S
1!$
1U
1H
1A
0D
1[#
0!#
0$"
1H#
04#
1&
1-
0*
0!$
0N#
1;#
0r"
0:"
0U
1r!
1=
0?
0B
1D
0E
0H
11
0/
0,
1*
0)
0&
1a#
0'#
0'"
1N#
0;#
0D
1E
0>
0C
1F
0*
1)
00
0+
1(
#840000
0"
0!
0P
14
0K
0Q
#850000
1!
04
1K
#860000
0!
14
0K
#870000
1!
04
1K
#880000
0!
14
0K
#890000
1!
04
1K
#900000
0!
14
0K
#910000
1!
04
1K
#920000
0!
14
0K
#930000
1!
04
1K
#940000
0!
14
0K
#950000
1!
04
1K
#960000
0!
14
0K
#970000
1!
04
1K
#980000
0!
14
0K
#990000
1!
04
1K
